…
```r
select(iprg, Protein, Run, Condition)
```

To choose rows based on a specific criteria, use `filter()`:


```r
filter(iprg, BioReplicate == 1)
```

```
## # A tibble: 9,079 x 7
##    Protein      Log2Intensity Run         Condition BioReplicate Intensity
##    <chr>                <dbl> <chr>       <chr>            <int>     <dbl>
##  1 sp|D6VTK4|S…          26.8 JD_0623201… Conditio…            1    1.18e8
##  2 sp|D6VTK4|S…          26.6 JD_0623201… Conditio…            1    1.02e8
##  3 sp|D6VTK4|S…          26.6 JD_0623201… Conditio…            1    1.01e8
##  4 sp|O13297|C…          24.7 JD_0623201… Conditio…            1    2.76e7
##  5 sp|O13297|C…          24.7 JD_0623201… Conditio…            1    2.68e7
##  6 sp|O13297|C…          24.7 JD_0623201… Conditio…            1    2.76e7
##  7 sp|O13329|F…          23.4 JD_0623201… Conditio…            1    1.09e7
##  8 sp|O13329|F…          24.0 JD_0623201… Conditio…            1    1.69e7
##  9 sp|O13329|F…          23.5 JD_0623201… Conditio…            1    1.16e7
## 10 sp|O13539|T…          27.5 JD_0623201… Conditio…            1    1.92e8
## # ... with 9,069 more rows, and 1 more variable: TechReplicate <chr>
```


```r
filter(iprg, Condition == 'Condition2')
```

```
## # A tibble: 9,081 x 7
##    Protein      Log2Intensity Run         Condition BioReplicate Intensity
##    <chr>                <dbl> <chr>       <chr>            <int>     <dbl>
##  1 sp|D6VTK4|S…          26.8 JD_0623201… Conditio…            2    1.20e8
##  2 sp|D6VTK4|S…          26.8 JD_0623201… Conditio…            2    1.16e8
##  3 sp|D6VTK4|S…          26.6 JD_0623201… Conditio…            2    1.02e8
##  4 sp|O13297|C…          24.5 JD_0623201… Conditio…            2    2.41e7
##  5 sp|O13297|C…          24.7 JD_0623201… Conditio…            2    2.68e7
##  6 sp|O13297|C…          24.6 JD_0623201… Conditio…            2    2.51e7
##  7 sp|O13329|F…          23.2 JD_0623201… Conditio…            2    9.45e6
##  8 sp|O13329|F…          23.4 JD_0623201… Conditio…            2    1.13e7
##  9 sp|O13329|F…          23.8 JD_0623201… Conditio…            2    1.43e7
## 10 sp|O13539|T…          25.9 JD_0623201… Conditio…            2    6.18e7
## # ... with 9,071 more rows, and 1 more variable: TechReplicate <chr>
```
…
```r
iprg %>%
  filter(Intensity > 1e8) %>%
  select(Protein, Condition, Intensity)
```

```
## # A tibble: 4,729 x 3
##    Protein              Condition   Intensity
##    <chr>                <chr>           <dbl>
##  1 sp|D6VTK4|STE2_YEAST Condition1 117845016.
##  2 sp|D6VTK4|STE2_YEAST Condition1 102273602.
##  3 sp|D6VTK4|STE2_YEAST Condition1 100526837.
##  4 sp|D6VTK4|STE2_YEAST Condition2 119765106.
##  5 sp|D6VTK4|STE2_YEAST Condition2 116382798.
##  6 sp|D6VTK4|STE2_YEAST Condition2 102328260.
##  7 sp|D6VTK4|STE2_YEAST Condition3 103830944.
##  8 sp|D6VTK4|STE2_YEAST Condition4 102150172.
##  9 sp|D6VTK4|STE2_YEAST Condition4 105724288.
## 10 sp|O13539|THP2_YEAST Condition1 192490784.
## # ... with 4,719 more rows
```
…
If we wanted to create a new object with this smaller version of the
data, we could do so by assigning it a new name:


```r
iprg_sml <- iprg %>%
	filter(Intensity > 1e8) %>%
	select(Protein, Condition, Intensity)

iprg_sml
```

```
## # A tibble: 4,729 x 3
##    Protein              Condition   Intensity
##    <chr>                <chr>           <dbl>
##  1 sp|D6VTK4|STE2_YEAST Condition1 117845016.
##  2 sp|D6VTK4|STE2_YEAST Condition1 102273602.
##  3 sp|D6VTK4|STE2_YEAST Condition1 100526837.
##  4 sp|D6VTK4|STE2_YEAST Condition2 119765106.
##  5 sp|D6VTK4|STE2_YEAST Condition2 116382798.
##  6 sp|D6VTK4|STE2_YEAST Condition2 102328260.
##  7 sp|D6VTK4|STE2_YEAST Condition3 103830944.
##  8 sp|D6VTK4|STE2_YEAST Condition4 102150172.
##  9 sp|D6VTK4|STE2_YEAST Condition4 105724288.
## 10 sp|O13539|THP2_YEAST Condition1 192490784.
## # ... with 4,719 more rows
```
…
Frequently you'll want to create new columns based on the values in existing
columns, for example to do unit conversions, or find the ratio of values in two
columns. For this we'll use `mutate()`.

To create a new column of weight in kg:


```r
iprg %>%
  mutate(Log10Intensity = log10(Intensity))
```

```
## # A tibble: 36,321 x 8
##    Protein      Log2Intensity Run         Condition BioReplicate Intensity
##    <chr>                <dbl> <chr>       <chr>            <int>     <dbl>
##  1 sp|D6VTK4|S…          26.8 JD_0623201… Conditio…            1    1.18e8
##  2 sp|D6VTK4|S…          26.6 JD_0623201… Conditio…            1    1.02e8
##  3 sp|D6VTK4|S…          26.6 JD_0623201… Conditio…            1    1.01e8
##  4 sp|D6VTK4|S…          26.8 JD_0623201… Conditio…            2    1.20e8
##  5 sp|D6VTK4|S…          26.8 JD_0623201… Conditio…            2    1.16e8
##  6 sp|D6VTK4|S…          26.6 JD_0623201… Conditio…            2    1.02e8
##  7 sp|D6VTK4|S…          26.6 JD_0623201… Conditio…            3    1.04e8
##  8 sp|D6VTK4|S…          26.5 JD_0623201… Conditio…            3    9.47e7
##  9 sp|D6VTK4|S…          26.5 JD_0623201… Conditio…            3    9.69e7
## 10 sp|D6VTK4|S…          26.6 JD_0623201… Conditio…            4    1.02e8
## # ... with 36,311 more rows, and 2 more variables: TechReplicate <chr>,
## #   Log10Intensity <dbl>
```

You can also create a second new column based on the first new column
within the same call of `mutate()`:


```r
iprg %>%
	mutate(Log10Intensity = log10(Intensity),
		   Log10Intensity2 = Log10Intensity * 2)
```

```
## # A tibble: 36,321 x 9
##    Protein      Log2Intensity Run         Condition BioReplicate Intensity
##    <chr>                <dbl> <chr>       <chr>            <int>     <dbl>
##  1 sp|D6VTK4|S…          26.8 JD_0623201… Conditio…            1    1.18e8
##  2 sp|D6VTK4|S…          26.6 JD_0623201… Conditio…            1    1.02e8
##  3 sp|D6VTK4|S…          26.6 JD_0623201… Conditio…            1    1.01e8
##  4 sp|D6VTK4|S…          26.8 JD_0623201… Conditio…            2    1.20e8
##  5 sp|D6VTK4|S…          26.8 JD_0623201… Conditio…            2    1.16e8
##  6 sp|D6VTK4|S…          26.6 JD_0623201… Conditio…            2    1.02e8
##  7 sp|D6VTK4|S…          26.6 JD_0623201… Conditio…            3    1.04e8
##  8 sp|D6VTK4|S…          26.5 JD_0623201… Conditio…            3    9.47e7
##  9 sp|D6VTK4|S…          26.5 JD_0623201… Conditio…            3    9.69e7
## 10 sp|D6VTK4|S…          26.6 JD_0623201… Conditio…            4    1.02e8
## # ... with 36,311 more rows, and 3 more variables: TechReplicate <chr>,
## #   Log10Intensity <dbl>, Log10Intensity2 <dbl>
```
…
<details>

```r
load("./data/iprgna.rda")
iprgna %>% mutate(Log10Intensity = log10(Intensity))
```

```
## # A tibble: 36,321 x 7
##    Protein      Run         Condition BioReplicate Intensity TechReplicate
##    <chr>        <chr>       <chr>            <int>     <dbl> <chr>        
##  1 sp|D6VTK4|S… JD_0623201… Conditio…            1   NA      B            
##  2 sp|D6VTK4|S… JD_0623201… Conditio…            1    1.02e8 C            
##  3 sp|D6VTK4|S… JD_0623201… Conditio…            1   NA      A            
##  4 sp|D6VTK4|S… JD_0623201… Conditio…            2    1.20e8 A            
##  5 sp|D6VTK4|S… JD_0623201… Conditio…            2   NA      B            
##  6 sp|D6VTK4|S… JD_0623201… Conditio…            2    1.02e8 C            
##  7 sp|D6VTK4|S… JD_0623201… Conditio…            3    1.04e8 A            
##  8 sp|D6VTK4|S… JD_0623201… Conditio…            3    9.47e7 B            
##  9 sp|D6VTK4|S… JD_0623201… Conditio…            3    9.69e7 C            
## 10 sp|D6VTK4|S… JD_0623201… Conditio…            4    1.02e8 B            
## # ... with 36,311 more rows, and 1 more variable: Log10Intensity <dbl>
```
</details>

The first few rows of the output are full of `NA`s, so if we wanted to remove
those we could insert a `filter()` in the chain:


```r
iprgna %>%
	filter(!is.na(Intensity)) %>%
	mutate(Log10Intensity = log10(Intensity))
```

```
## # A tibble: 35,318 x 7
##    Protein      Run         Condition BioReplicate Intensity TechReplicate
##    <chr>        <chr>       <chr>            <int>     <dbl> <chr>        
##  1 sp|D6VTK4|S… JD_0623201… Conditio…            1    1.02e8 C            
##  2 sp|D6VTK4|S… JD_0623201… Conditio…            2    1.20e8 A            
##  3 sp|D6VTK4|S… JD_0623201… Conditio…            2    1.02e8 C            
##  4 sp|D6VTK4|S… JD_0623201… Conditio…            3    1.04e8 A            
##  5 sp|D6VTK4|S… JD_0623201… Conditio…            3    9.47e7 B            
##  6 sp|D6VTK4|S… JD_0623201… Conditio…            3    9.69e7 C            
##  7 sp|D6VTK4|S… JD_0623201… Conditio…            4    1.02e8 B            
##  8 sp|D6VTK4|S… JD_0623201… Conditio…            4    8.77e7 C            
##  9 sp|D6VTK4|S… JD_0623201… Conditio…            4    1.06e8 A            
## 10 sp|O13297|C… JD_0623201… Conditio…            1    2.76e7 B            
## # ... with 35,308 more rows, and 1 more variable: Log10Intensity <dbl>
```
…
